<?xml version="1.0" encoding="UTF-8" standalone="no"?>
<!-- Created with Inkscape (http://www.inkscape.org/) -->

<svg
   xmlns:dc="http://purl.org/dc/elements/1.1/"
   xmlns:cc="http://creativecommons.org/ns#"
   xmlns:rdf="http://www.w3.org/1999/02/22-rdf-syntax-ns#"
   xmlns:svg="http://www.w3.org/2000/svg"
   xmlns="http://www.w3.org/2000/svg"
   xmlns:sodipodi="http://sodipodi.sourceforge.net/DTD/sodipodi-0.dtd"
   xmlns:inkscape="http://www.inkscape.org/namespaces/inkscape"
   width="204.0484mm"
   height="105.99993mm"
   viewBox="0 0 723.00614 375.59031"
   id="svg2"
   version="1.1"
   inkscape:version="0.91 r13725"
   sodipodi:docname="ownmesh-logo.svg">
  <defs
     id="defs4" />
  <sodipodi:namedview
     id="base"
     pagecolor="#000000"
     bordercolor="#636363"
     borderopacity="1"
     inkscape:pageopacity="0"
     inkscape:pageshadow="2"
     inkscape:zoom="0.9899495"
     inkscape:cx="460.37053"
     inkscape:cy="-55.36459"
     inkscape:document-units="px"
     inkscape:current-layer="layer1"
     showgrid="false"
     inkscape:window-width="1613"
     inkscape:window-height="970"
     inkscape:window-x="297"
     inkscape:window-y="104"
     inkscape:window-maximized="0"
     showguides="true"
     inkscape:guide-bbox="true"
     fit-margin-top="0"
     fit-margin-left="0"
     fit-margin-right="0"
     fit-margin-bottom="0"
     showborder="true"
     inkscape:showpageshadow="true">
    <sodipodi:guide
       position="41.138784,-369.69097"
       orientation="0,1"
       id="guide4539" />
  </sodipodi:namedview>
  <metadata
     id="metadata7">
    <rdf:RDF>
      <cc:Work
         rdf:about="">
        <dc:format>image/svg+xml</dc:format>
        <dc:type
           rdf:resource="http://purl.org/dc/dcmitype/StillImage" />
        <dc:title></dc:title>
      </cc:Work>
    </rdf:RDF>
  </metadata>
  <g
     inkscape:label="Layer 1"
     inkscape:groupmode="layer"
     id="layer1"
     transform="translate(-11.389147,-14.136707)">
    <path
       style="opacity:1;fill:none;fill-opacity:1;fill-rule:nonzero;stroke:#4b4b4b;stroke-width:36;stroke-linecap:round;stroke-linejoin:round;stroke-miterlimit:4;stroke-dasharray:none;stroke-opacity:1"
       id="path4136-8-3-9-5-9"
       transform="matrix(-0.98480775,0.17364819,0.17364819,0.98480775,0,0)"
       sodipodi:type="arc"
       sodipodi:cx="-551.16797"
       sodipodi:cy="360.14249"
       sodipodi:rx="109.07132"
       sodipodi:ry="109.07132"
       sodipodi:start="1.4609174"
       sodipodi:end="5.0534374"
       d="m -539.20743,468.55604 a 109.07132,109.07132 0 0 1 -108.54617,-57.7404 109.07132,109.07132 0 0 1 14.1793,-122.12768 109.07132,109.07132 0 0 1 118.88799,-31.33478"
       sodipodi:open="true" />
    <path
       style="opacity:1;fill:none;fill-opacity:1;fill-rule:nonzero;stroke:#4b4b4b;stroke-width:35.99999994;stroke-linecap:round;stroke-linejoin:round;stroke-miterlimit:4;stroke-dasharray:none;stroke-opacity:1"
       id="path4136-8-3-9-9"
       transform="matrix(-0.8660254,0.50000001,0.50000001,0.8660254,0,0)"
       sodipodi:type="arc"
       sodipodi:cx="-354.30563"
       sodipodi:cy="340.479"
       sodipodi:rx="83.618546"
       sodipodi:ry="83.618546"
       sodipodi:start="2.0762982"
       sodipodi:end="6.0902964"
       sodipodi:open="true"
       d="m -394.79763,413.63951 a 83.618546,83.618546 0 0 1 -40.0365,-95.68211 83.618546,83.618546 0 0 1 83.86466,-61.03036 83.618546,83.618546 0 0 1 78.73164,67.5227" />
    <path
       style="opacity:1;fill:none;fill-opacity:1;fill-rule:nonzero;stroke:#4b4b4b;stroke-width:36;stroke-linecap:round;stroke-linejoin:round;stroke-miterlimit:4;stroke-dasharray:none;stroke-opacity:1"
       id="path4136-8-3-1-1-5-4-4"
       transform="matrix(0,1,1,0,0,0)"
       sodipodi:type="arc"
       sodipodi:cx="203.10976"
       sodipodi:cy="299.49533"
       sodipodi:rx="109.36633"
       sodipodi:ry="109.36633"
       sodipodi:start="2.1151069"
       sodipodi:end="4.6117631"
       d="M 146.47676,393.05653 A 109.36633,109.36633 0 0 1 96.423583,275.43176 109.36633,109.36633 0 0 1 192.12324,190.68223"
       sodipodi:open="true" />
    <path
       style="opacity:1;fill:none;fill-opacity:1;fill-rule:nonzero;stroke:#4b4b4b;stroke-width:36.00000007;stroke-linecap:round;stroke-miterlimit:4;stroke-dasharray:none;stroke-opacity:1"
       id="path4136-8-3-1-1-5-7"
       transform="matrix(0.93969262,-0.34202014,0.34202014,0.93969262,0,0)"
       sodipodi:type="arc"
       sodipodi:cx="30.167473"
       sodipodi:cy="308.42877"
       sodipodi:rx="102.44784"
       sodipodi:ry="102.44784"
       sodipodi:start="2.438778"
       sodipodi:end="5.6345463"
       d="m -48.002882,374.64777 a 102.44784,102.44784 0 0 1 -17.621854,-102.54271 102.44784,102.44784 0 0 1 81.18203,-65.07699 102.44784,102.44784 0 0 1 96.251546,39.51172"
       sodipodi:open="true" />
    <path
       style="opacity:1;fill:none;fill-opacity:1;fill-rule:nonzero;stroke:#4b4b4b;stroke-width:28;stroke-linecap:round;stroke-miterlimit:4;stroke-dasharray:none;stroke-opacity:1"
       id="path4307-4-9"
       sodipodi:type="arc"
       sodipodi:cx="388.02527"
       sodipodi:cy="-411.00259"
       sodipodi:rx="106.22552"
       sodipodi:ry="121.78571"
       sodipodi:start="0.63761246"
       sodipodi:end="2.5727545"
       d="m 473.37952,-338.50615 a 106.22552,121.78571 0 0 1 -89.00632,49.21727 106.22552,121.78571 0 0 1 -85.84584,-56.11341"
       transform="scale(1,-1)"
       sodipodi:open="true" />
    <path
       style="fill:#575757;fill-opacity:1;fill-rule:evenodd;stroke:#4b4b4b;stroke-width:30;stroke-linecap:round;stroke-linejoin:miter;stroke-miterlimit:4;stroke-dasharray:none;stroke-opacity:1"
       d="m 177.84267,298.20335 117.48324,50.50637"
       id="path4153-37-0"
       inkscape:connector-curvature="0"
       sodipodi:nodetypes="cc" />
    <g
       id="g4243"
       transform="matrix(0.93969262,0.34202014,-0.34202014,0.93969262,313.2824,-336.15796)">
      <path
         inkscape:connector-curvature="0"
         id="path4153"
         d="m 217.03205,556.05796 25.36785,24.20631"
         style="fill:#575757;fill-opacity:1;fill-rule:evenodd;stroke:#4b4b4b;stroke-width:30.00000006;stroke-linecap:round;stroke-linejoin:miter;stroke-miterlimit:4;stroke-dasharray:none;stroke-opacity:1"
         sodipodi:nodetypes="cc" />
      <circle
         r="54.548237"
         cy="511.93057"
         cx="172.73608"
         id="path4136-8"
         style="opacity:1;fill:none;fill-opacity:1;fill-rule:nonzero;stroke:#4b4b4b;stroke-width:30.00000006;stroke-miterlimit:4;stroke-dasharray:none;stroke-opacity:1" />
      <circle
         r="54.548237"
         cy="512.22644"
         cx="172.73608"
         id="path4136"
         style="opacity:1;fill:none;fill-opacity:1;fill-rule:nonzero;stroke:#ffffff;stroke-width:16.00000003;stroke-miterlimit:4;stroke-dasharray:none;stroke-opacity:1" />
      <path
         sodipodi:nodetypes="cc"
         inkscape:connector-curvature="0"
         id="path4153-3"
         d="m 217.1267,556.38867 26.51183,25.72774"
         style="fill:#575757;fill-opacity:1;fill-rule:evenodd;stroke:#ffffff;stroke-width:16.00000003;stroke-linecap:round;stroke-linejoin:miter;stroke-miterlimit:4;stroke-dasharray:none;stroke-opacity:1" />
    </g>
    <path
       style="fill:#575757;fill-opacity:1;fill-rule:evenodd;stroke:#4b4b4b;stroke-width:30;stroke-linecap:round;stroke-linejoin:miter;stroke-miterlimit:4;stroke-dasharray:none;stroke-opacity:1"
       d="M 466.6586,147.64961 424.18357,287.45944"
       id="path4153-37"
       inkscape:connector-curvature="0"
       sodipodi:nodetypes="cc" />
    <circle
       style="opacity:1;fill:none;fill-opacity:1;fill-rule:nonzero;stroke:#4b4b4b;stroke-width:29.99999995;stroke-miterlimit:4;stroke-dasharray:none;stroke-opacity:1"
       id="path4136-8-3"
       cx="-355.68976"
       cy="336.62097"
       transform="matrix(-0.8660254,0.50000001,0.50000001,0.8660254,0,0)"
       r="27.274118" />
    <circle
       style="opacity:1;fill:none;fill-opacity:1;fill-rule:nonzero;stroke:#ffffff;stroke-width:15.99999997;stroke-miterlimit:4;stroke-dasharray:none;stroke-opacity:1"
       id="path4136-2"
       cx="-355.68976"
       cy="336.76892"
       r="27.274118"
       transform="matrix(-0.8660254,0.50000001,0.50000001,0.8660254,0,0)" />
    <path
       style="fill:#575757;fill-opacity:1;fill-rule:evenodd;stroke:#ffffff;stroke-width:16;stroke-linecap:round;stroke-linejoin:miter;stroke-miterlimit:4;stroke-dasharray:none;stroke-opacity:1"
       d="M 467.08607,146.04033 423.62032,288.34868"
       id="path4153-3-6"
       inkscape:connector-curvature="0"
       sodipodi:nodetypes="cc" />
    <g
       transform="matrix(-0.9961947,-0.08715574,-0.08715574,0.9961947,823.20544,-235.9984)"
       id="g4243-5">
      <path
         inkscape:connector-curvature="0"
         id="path4153-2"
         d="m 224.94522,550.06292 70.794,54.63919"
         style="fill:#575757;fill-opacity:1;fill-rule:evenodd;stroke:#4b4b4b;stroke-width:29.99999995;stroke-linecap:round;stroke-linejoin:miter;stroke-miterlimit:4;stroke-dasharray:none;stroke-opacity:1"
         sodipodi:nodetypes="cc" />
      <circle
         r="54.548237"
         cy="511.93057"
         cx="172.73608"
         id="path4136-8-6"
         style="opacity:1;fill:none;fill-opacity:1;fill-rule:nonzero;stroke:#4b4b4b;stroke-width:29.99999995;stroke-miterlimit:4;stroke-dasharray:none;stroke-opacity:1" />
      <circle
         r="54.548237"
         cy="512.22644"
         cx="172.73608"
         id="path4136-5"
         style="opacity:1;fill:none;fill-opacity:1;fill-rule:nonzero;stroke:#ffffff;stroke-width:15.99999997;stroke-miterlimit:4;stroke-dasharray:none;stroke-opacity:1" />
      <path
         sodipodi:nodetypes="cc"
         inkscape:connector-curvature="0"
         id="path4153-3-8"
         d="m 222.61542,548.01878 72.94229,56.26138"
         style="fill:#575757;fill-opacity:1;fill-rule:evenodd;stroke:#ffffff;stroke-width:15.99999997;stroke-linecap:round;stroke-linejoin:miter;stroke-miterlimit:4;stroke-dasharray:none;stroke-opacity:1" />
    </g>
    <path
       style="opacity:1;fill:none;fill-opacity:1;fill-rule:nonzero;stroke:#ffffff;stroke-width:16;stroke-linecap:round;stroke-linejoin:round;stroke-miterlimit:4;stroke-dasharray:none;stroke-opacity:1"
       id="path4307-4"
       sodipodi:type="arc"
       sodipodi:cx="387.60004"
       sodipodi:cy="-410.93619"
       sodipodi:rx="106.22552"
       sodipodi:ry="121.78571"
       sodipodi:start="0.62708713"
       sodipodi:end="2.5791967"
       d="m 473.61511,-339.47372 a 106.22552,121.78571 0 0 1 -89.4504,50.25954 106.22552,121.78571 0 0 1 -86.42933,-56.78408"
       transform="scale(1,-1)"
       sodipodi:open="true" />
    <circle
       style="opacity:1;fill:none;fill-opacity:1;fill-rule:nonzero;stroke:#4b4b4b;stroke-width:30.00000006;stroke-miterlimit:4;stroke-dasharray:none;stroke-opacity:1"
       id="path4136-8-3-1"
       cx="30.47998"
       cy="308.07355"
       transform="matrix(0.93969262,-0.34202014,0.34202014,0.93969262,0,0)"
       r="40.911179" />
    <circle
       style="opacity:1;fill:none;fill-opacity:1;fill-rule:nonzero;stroke:#ffffff;stroke-width:16.00000003;stroke-miterlimit:4;stroke-dasharray:none;stroke-opacity:1"
       id="path4136-2-7"
       cx="30.47998"
       cy="308.29547"
       r="40.911179"
       transform="matrix(0.93969262,-0.34202014,0.34202014,0.93969262,0,0)" />
    <path
       style="fill:#575757;fill-opacity:1;fill-rule:evenodd;stroke:#ffffff;stroke-width:16;stroke-linecap:round;stroke-linejoin:miter;stroke-miterlimit:4;stroke-dasharray:none;stroke-opacity:1"
       d="m 176.55103,297.85548 119.86031,50.52126"
       id="path4153-3-6-8"
       inkscape:connector-curvature="0"
       sodipodi:nodetypes="cc" />
    <path
       style="opacity:1;fill:none;fill-opacity:1;fill-rule:nonzero;stroke:#ffffff;stroke-width:20.00000004;stroke-linecap:round;stroke-linejoin:round;stroke-miterlimit:4;stroke-dasharray:none;stroke-opacity:1"
       id="path4136-8-3-1-1-5"
       transform="matrix(0.93969262,-0.34202014,0.34202014,0.93969262,0,0)"
       sodipodi:type="arc"
       sodipodi:cx="30.4627"
       sodipodi:cy="307.6767"
       sodipodi:rx="102.44784"
       sodipodi:ry="102.44784"
       sodipodi:start="2.4415339"
       sodipodi:end="5.6466459"
       d="M -47.889851,373.68001 A 102.44784,102.44784 0 0 1 -65.114623,270.79127 102.44784,102.44784 0 0 1 16.764188,206.14882 102.44784,102.44784 0 0 1 112.84691,246.78005"
       sodipodi:open="true" />
    <path
       style="opacity:1;fill:none;fill-opacity:1;fill-rule:nonzero;stroke:#ffffff;stroke-width:20;stroke-linecap:round;stroke-linejoin:round;stroke-miterlimit:4;stroke-dasharray:none;stroke-opacity:1"
       id="path4136-8-3-1-1-5-4"
       transform="matrix(0,1,1,0,0,0)"
       sodipodi:type="arc"
       sodipodi:cx="203.94514"
       sodipodi:cy="299.7085"
       sodipodi:rx="109.36633"
       sodipodi:ry="109.36633"
       sodipodi:start="2.110054"
       sodipodi:end="4.6117631"
       d="M 147.78563,393.55466 A 109.36633,109.36633 0 0 1 97.198517,275.91454 109.36633,109.36633 0 0 1 192.95862,190.89539"
       sodipodi:open="true" />
    <path
       style="opacity:1;fill:none;fill-opacity:1;fill-rule:nonzero;stroke:#ffffff;stroke-width:20;stroke-linecap:round;stroke-linejoin:round;stroke-miterlimit:4;stroke-dasharray:none;stroke-opacity:1"
       id="path4136-8-3-9"
       transform="matrix(-0.8660254,0.50000001,0.50000001,0.8660254,0,0)"
       sodipodi:type="arc"
       sodipodi:cx="-354.42123"
       sodipodi:cy="341.0838"
       sodipodi:rx="83.618546"
       sodipodi:ry="83.618546"
       sodipodi:start="2.0859208"
       sodipodi:end="6.0934629"
       sodipodi:open="true"
       d="m -395.61534,413.85129 a 83.618546,83.618546 0 0 1 -39.16389,-95.89005 83.618546,83.618546 0 0 1 84.13849,-60.41048 83.618546,83.618546 0 0 1 78.33765,67.76373" />
    <path
       style="opacity:1;fill:none;fill-opacity:1;fill-rule:nonzero;stroke:#ffffff;stroke-width:20;stroke-linecap:round;stroke-linejoin:round;stroke-miterlimit:4;stroke-dasharray:none;stroke-opacity:1"
       id="path4136-8-3-9-5"
       transform="matrix(-0.98480775,0.17364819,0.17364819,0.98480775,0,0)"
       sodipodi:type="arc"
       sodipodi:cx="-552.0437"
       sodipodi:cy="360.17999"
       sodipodi:rx="109.07132"
       sodipodi:ry="109.07132"
       sodipodi:start="1.4498153"
       sodipodi:end="5.0534374"
       d="m -538.88031,468.45408 a 109.07132,109.07132 0 0 1 -109.37133,-56.88746 109.07132,109.07132 0 0 1 13.53774,-122.5357 109.07132,109.07132 0 0 1 119.15186,-31.64023"
       sodipodi:open="true" />
  </g>
</svg>
